{
  "$schema": "http://json-schema.org/draft-07/schema#",
  "description": "Application zoekt settings",
  "type": "object",
  "additionalProperties": false,
  "properties": {
    "zoekt_indexing_enabled": {
      "type": "boolean",
      "description": "If zoekt indexing is enabled for the instance"
    },
    "zoekt_indexing_paused": {
      "type": "boolean",
      "description": "If zoekt indexing is paused for the instance"
    },
    "zoekt_search_enabled": {
      "type": "boolean",
      "description": "If zoekt search is enabled for the instance"
    }
  }
}
